…
# Show percentage change
tidy_GDP_recalc %>% 
  select(Country, year, GDP_diff)

## # A tibble: 144 × 3
##    Country  year GDP_diff  
##    <chr>   <dbl> <formttbl>
##  1 Germany  1970 2.94%     
##  2 Germany  1971 3.42%     
##  3 Germany  1972 3.43%     
##  4 Germany  1973 2.84%     
##  5 Germany  1974 1.75%     
##  6 Germany  1975 2.84%     
##  7 Germany  1976 2.76%     
##  8 Germany  1977 2.69%     
##  9 Germany  1978 2.96%     
## 10 Germany  1979 3.33%     
## # … with 134 more rows
## # ℹ Use `print(n = ...)` to see more rows
…
